%YAML 1.1
%TAG !u! tag:unity3d.com,2011:
--- !u!74 &7400000
AnimationClip:
  m_ObjectHideFlags: 0
  m_CorrespondingSourceObject: {fileID: 0}
  m_PrefabInstance: {fileID: 0}
  m_PrefabAsset: {fileID: 0}
  m_Name: groundslam
  serializedVersion: 6
  m_Legacy: 0
  m_Compressed: 0
  m_UseHighQualityCurve: 1
  m_RotationCurves: []
  m_CompressedRotationCurves: []
  m_EulerCurves: []
  m_PositionCurves: []
  m_ScaleCurves: []
  m_FloatCurves: []
  m_PPtrCurves:
  - curve:
    - time: 0
      value: {fileID: -2570930344637394200, guid: 72dcb8d68077ac74193a05e7ee621339,
        type: 3}
    - time: 0.03125
      value: {fileID: 2664991264370210245, guid: 72dcb8d68077ac74193a05e7ee621339,
        type: 3}
    - time: 0.0625
      value: {fileID: -2184872474594528377, guid: 72dcb8d68077ac74193a05e7ee621339,
        type: 3}
    - time: 0.09375
      value: {fileID: 2369251965399804782, guid: 72dcb8d68077ac74193a05e7ee621339,
        type: 3}
    - time: 0.125
      value: {fileID: -3798636683775277619, guid: 72dcb8d68077ac74193a05e7ee621339,
        type: 3}
    - time: 0.15625
      value: {fileID: 8962568944703131847, guid: 72dcb8d68077ac74193a05e7ee621339,
        type: 3}
    - time: 0.1875
      value: {fileID: -7480262872008134045, guid: 72dcb8d68077ac74193a05e7ee621339,
        type: 3}
    - time: 0.21875
      value: {fileID: -6631951908994544157, guid: 72dcb8d68077ac74193a05e7ee621339,
        type: 3}
    - time: 0.25
      value: {fileID: -2610278957359412509, guid: 72dcb8d68077ac74193a05e7ee621339,
        type: 3}
    - time: 0.28125
      value: {fileID: 5550810380865398980, guid: 72dcb8d68077ac74193a05e7ee621339,
        type: 3}
    - time: 0.3125
      value: {fileID: 5211029652976789054, guid: 72dcb8d68077ac74193a05e7ee621339,
        type: 3}
    attribute: m_Sprite
    path: 
    classID: 212
    script: {fileID: 0}
  m_SampleRate: 32
  m_WrapMode: 0
  m_Bounds:
    m_Center: {x: 0, y: 0, z: 0}
    m_Extent: {x: 0, y: 0, z: 0}
  m_ClipBindingConstant:
    genericBindings:
    - serializedVersion: 2
      path: 0
      attribute: 0
      script: {fileID: 0}
      typeID: 212
      customType: 23
      isPPtrCurve: 1
    pptrCurveMapping:
    - {fileID: -2570930344637394200, guid: 72dcb8d68077ac74193a05e7ee621339, type: 3}
    - {fileID: 2664991264370210245, guid: 72dcb8d68077ac74193a05e7ee621339, type: 3}
    - {fileID: -2184872474594528377, guid: 72dcb8d68077ac74193a05e7ee621339, type: 3}
    - {fileID: 2369251965399804782, guid: 72dcb8d68077ac74193a05e7ee621339, type: 3}
    - {fileID: -3798636683775277619, guid: 72dcb8d68077ac74193a05e7ee621339, type: 3}
    - {fileID: 8962568944703131847, guid: 72dcb8d68077ac74193a05e7ee621339, type: 3}
    - {fileID: -7480262872008134045, guid: 72dcb8d68077ac74193a05e7ee621339, type: 3}
    - {fileID: -6631951908994544157, guid: 72dcb8d68077ac74193a05e7ee621339, type: 3}
    - {fileID: -2610278957359412509, guid: 72dcb8d68077ac74193a05e7ee621339, type: 3}
    - {fileID: 5550810380865398980, guid: 72dcb8d68077ac74193a05e7ee621339, type: 3}
    - {fileID: 5211029652976789054, guid: 72dcb8d68077ac74193a05e7ee621339, type: 3}
  m_AnimationClipSettings:
    serializedVersion: 2
    m_AdditiveReferencePoseClip: {fileID: 0}
    m_AdditiveReferencePoseTime: 0
    m_StartTime: 0
    m_StopTime: 0.34375
    m_OrientationOffsetY: 0
    m_Level: 0
    m_CycleOffset: 0
    m_HasAdditiveReferencePose: 0
    m_LoopTime: 0
    m_LoopBlend: 0
    m_LoopBlendOrientation: 0
    m_LoopBlendPositionY: 0
    m_LoopBlendPositionXZ: 0
    m_KeepOriginalOrientation: 0
    m_KeepOriginalPositionY: 1
    m_KeepOriginalPositionXZ: 0
    m_HeightFromFeet: 0
    m_Mirror: 0
  m_EditorCurves: []
  m_EulerEditorCurves: []
  m_HasGenericRootTransform: 0
  m_HasMotionFloatCurves: 0
  m_Events: []
